mc20_13TeV:mc20_13TeV.410408.aMcAtNloPythia8EvtGen_tWZ_Ztoll_minDR1.deriv.DAOD_PHYSLITE.e6423_s3681_r13144_r13146_p5855
mc20_13TeV:mc20_13TeV.410408.aMcAtNloPythia8EvtGen_tWZ_Ztoll_minDR1.deriv.DAOD_PHYSLITE.e6423_s3681_r13145_r13146_p5855
mc20_13TeV:mc20_13TeV.410408.aMcAtNloPythia8EvtGen_tWZ_Ztoll_minDR1.deriv.DAOD_PHYSLITE.e6423_s3681_r13167_r13146_p5855
